Date         ibm         vw           ew          sp
19260130    -0.01038     0.00031     0.02319     0.02247
19260227    -0.02448    -0.03192    -0.05311    -0.04396
19260331    -0.11559    -0.06470    -0.09689    -0.05911
19260430     0.08978     0.03704     0.03137     0.02269
19260528     0.03693     0.01452     0.00360     0.00768
19260630     0.06849     0.05561     0.05112     0.04318
19260731     0.00000     0.02870     0.01316     0.04545
19260831     0.00000     0.02768     0.02770     0.01708
19260930     0.06510     0.00246    -0.00619     0.02290
19261030     0.03226    -0.02790    -0.03107    -0.03134
19261130     0.03125     0.02757     0.02362     0.02234
19261231     0.03030     0.02926     0.02599     0.01658
19270131     0.02304     0.00175     0.01052    -0.02076
19270228     0.08108     0.04517     0.05652     0.04769
19270331     0.18333     0.00673    -0.01921     0.00650
19270430     0.07857     0.00681     0.00853     0.01723
19270531     0.14901     0.05709     0.06184     0.05222
19270630    -0.04899    -0.02035    -0.01919    -0.00939
19270730     0.08589     0.07568     0.05855     0.06500
19270831     0.03107     0.02546     0.00356     0.04450
19270930     0.01918     0.04687     0.03275     0.04321
19271031    -0.00815    -0.03953    -0.03848    -0.05309
19271130     0.09041     0.06931     0.09736     0.06778
19271231     0.21859     0.02309     0.03001     0.01904
19280131     0.04167    -0.00294     0.03269    -0.00510
19280229     0.02800    -0.01357    -0.02241    -0.01764
19280331     0.00486     0.08978     0.07087     0.10834
19280430    -0.00684     0.04292     0.08638     0.03241
19280531    -0.01575     0.01951     0.03782     0.01266
19280630    -0.00400    -0.04602    -0.06829    -0.04050
19280731    -0.01014     0.01025     0.00358     0.01251
19280831     0.07172     0.06798     0.05735     0.07411
19280929     0.07839     0.03105     0.05009     0.02396
19281031     0.03578     0.02080     0.01635     0.01451
19281130     0.10535     0.12073     0.11648     0.11993
19281231     0.03195     0.00377    -0.00493     0.00288
19290131    -0.02003     0.05324     0.03312     0.05708
19290228     0.05315    -0.00101     0.00642    -0.00583
19290328     0.00155    -0.00745    -0.03222    -0.00234
19290430     0.12422     0.01783     0.01402     0.01606
19290531    -0.01181    -0.05584    -0.08950    -0.04279
19290629     0.18847     0.09898     0.07352     0.11236
19290731     0.10952     0.04561     0.01935     0.04562
19290830     0.03433     0.08419     0.02615     0.09799
19290930    -0.04824    -0.04947    -0.04257    -0.04888
19291031    -0.18904    -0.19568    -0.21238    -0.19927
19291127    -0.22297    -0.12267    -0.12153    -0.13375
19291231     0.19374     0.01783    -0.02551     0.02533
19300131     0.01080     0.05552     0.10852     0.06247
19300228     0.06794     0.02639     0.03199     0.02150
19300331     0.04932     0.07642     0.10237     0.07990
19300430    -0.00412    -0.02180    -0.04141    -0.00955
19300529     0.07586    -0.01285    -0.03844    -0.01647
19300630    -0.10513    -0.15740    -0.18741    -0.16456
19300731     0.00000     0.04092     0.03914     0.03666
19300829     0.04046     0.00312    -0.01870     0.00754
19300930    -0.11250    -0.12438    -0.14971    -0.13009
19301031    -0.09795    -0.08402    -0.09497    -0.08876
19301129     0.02277    -0.02594    -0.02458    -0.02184
19301231     0.08904    -0.07753    -0.13733    -0.07423
19310131     0.02500     0.06205     0.14126     0.04889
19310228     0.12520     0.10900     0.15757     0.11436
19310331    -0.04913    -0.06436    -0.06364    -0.06916
19310430    -0.02301    -0.09846    -0.15123    -0.09587
19310529    -0.21193    -0.13299    -0.14022    -0.13718
19310630     0.19124     0.13770     0.18009     0.13902
19310731    -0.09122    -0.06384    -0.07055    -0.07417
19310831     0.07063     0.00085    -0.01881     0.00947
19310930    -0.22917    -0.28977    -0.31184    -0.29942
19311031     0.11416     0.08070     0.11047     0.08445
19311130    -0.01639    -0.08942    -0.08268    -0.09782
19311231    -0.07531    -0.13487    -0.18693    -0.14526
19320130    -0.04556    -0.01067     0.09027    -0.02833
19320229     0.02387     0.05693     0.02357     0.05070
19320331    -0.04294    -0.10931    -0.11735    -0.11821
19320430    -0.16667    -0.18004    -0.18464    -0.20246
19320531    -0.16250    -0.20692    -0.19959    -0.23328
19320630    -0.04851    -0.00945     0.04619    -0.00895
19320730     0.20080     0.33139     0.43267     0.37698
19320831     0.35117     0.36534     0.65507     0.37541
19320930     0.02475    -0.03154    -0.05397    -0.03695
19321031    -0.13235    -0.13059    -0.16391    -0.13861
19321130    -0.09746    -0.05563    -0.07347    -0.05891
19321231     0.14554     0.04485    -0.03688     0.05191
19330131     0.02083     0.00969     0.03960     0.00726
19330228    -0.16735    -0.13287    -0.12104    -0.18444
19330331     0.16993     0.01599     0.05972     0.03357
19330429     0.26136     0.38272     0.51785     0.42222
19330531     0.08108     0.21205     0.60311     0.15865
19330630     0.13750     0.13372     0.22455     0.13174
19330731     0.02963    -0.09610    -0.09217    -0.08799
19330831     0.06115     0.12170     0.11293     0.11457
19330930    -0.09492    -0.10568    -0.14956    -0.11362
19331031    -0.01610    -0.08252    -0.10762    -0.08850
19331129     0.12416     0.09961     0.06866     0.10268
19331230    -0.01199     0.02012     0.01500     0.02227
19340131     0.02977     0.12993     0.31767     0.10594
19340228    -0.02041    -0.02342     0.01009    -0.03671
19340331    -0.06597     0.00493     0.00757    -0.00093
19340430     0.07519    -0.01804     0.00176    -0.02698
19340531    -0.06643    -0.07072    -0.10644    -0.08126
19340630     0.05712     0.02520     0.00348     0.02081
19340731    -0.04387    -0.10824    -0.18560    -0.11519
19340831     0.02996     0.05955     0.09782     0.05415
19340929     0.03636    -0.00293    -0.01061    -0.00546
19341031    -0.01418    -0.02027    -0.02094    -0.03187
19341130     0.11151     0.08410     0.12713     0.08286
19341231     0.01650     0.00407     0.01498    -0.00419
19350131    -0.00656    -0.03212    -0.02993    -0.04211
19350228     0.04950    -0.01975    -0.05480    -0.03956
19350330     0.01022    -0.03737    -0.07576    -0.03089
19350430     0.09348     0.08955     0.10213     0.09563
19350531    -0.00862     0.03485     0.02473     0.03233
19350629     0.03478     0.05493     0.04069     0.06785
19350731     0.03390     0.07408     0.11144     0.08309
19350831    -0.00683     0.02788     0.08075     0.02166
19350930    -0.01376     0.02406     0.02387     0.02385
19351031     0.01406     0.07052     0.08074     0.07506
19351130     0.01248     0.05180     0.14510     0.03933
19351231     0.01494     0.04613     0.05980     0.03707
19360131     0.02453     0.06599     0.14937     0.06552
19360229    -0.04788     0.02608     0.04658     0.01677
19360331     0.03448     0.00867     0.00480     0.02543
19360430    -0.09244    -0.07854    -0.12137    -0.07708
19360529     0.02469     0.05054     0.05190     0.04575
19360630     0.04518     0.02600    -0.00058     0.03056
19360731    -0.04506     0.06395     0.08185     0.06806
19360831     0.02283     0.01135     0.02222     0.00883
19360930     0.02418     0.01471     0.03385     0.00125
19361031     0.00257     0.06999     0.06490     0.07495
19361130     0.11404     0.03422     0.09085     0.00407
19361231    -0.00131     0.00119     0.03008    -0.00579
19370130    -0.04437     0.03268     0.07578     0.03783
19370227    -0.01594     0.01329     0.02539     0.01458
19370331    -0.04539    -0.00421    -0.00004    -0.00940
19370430     0.01642    -0.07450    -0.10125    -0.08315
19370528    -0.07077    -0.00807    -0.02383    -0.01035
19370630     0.00331    -0.04074    -0.07614    -0.05289
19370731     0.07000     0.08420     0.09824     0.10260
19370831    -0.06542    -0.04541    -0.05158    -0.05536
19370930    -0.01500    -0.13501    -0.19222    -0.14214
19371030    -0.02222    -0.09483    -0.10209    -0.10174
19371130    -0.07692    -0.08336    -0.10861    -0.10113
19371231     0.04735    -0.04076    -0.09966    -0.05041
19380131     0.07130     0.00835     0.04305     0.01327
19380228     0.04778     0.05727     0.05946     0.06080
19380331    -0.10049    -0.23675    -0.28561    -0.25044
19380430     0.06923     0.14554     0.21607     0.14118
19380531     0.01799    -0.03914    -0.07025    -0.04433
19380630     0.09541     0.23617     0.30615     0.24703
19380730     0.06515     0.07184     0.12124     0.07266
19380831    -0.00612    -0.02733    -0.06247    -0.02742
19380930     0.01231     0.00889    -0.01539     0.01493
19381031     0.07055     0.07745     0.14520     0.07598
19381130     0.00860    -0.01833    -0.03619    -0.03341
19381231     0.05966     0.04059     0.03227     0.03771
19390131    -0.03986    -0.05974    -0.07552    -0.06889
19390228     0.03730     0.03480     0.04103     0.03252
19390331    -0.03406    -0.11918    -0.17215    -0.13543
19390429    -0.01488    -0.00264     0.00139    -0.00546
19390531     0.07024     0.06859     0.08612     0.06227
19390630    -0.00353    -0.05324    -0.08458    -0.06379
19390731     0.06857     0.10122     0.13471     0.10866
19390831    -0.09358    -0.06608    -0.10628    -0.07143
19390930    -0.01475     0.16001     0.39273     0.16458
19391031     0.08761    -0.00412    -0.00734    -0.01459
19391130     0.00000    -0.03659    -0.08084    -0.04910
19391230     0.03958     0.03007     0.01632     0.02377
19400131    -0.02896    -0.02464    -0.01849    -0.03523
19400229     0.05132     0.01429     0.02949     0.00664
19400330    -0.00679     0.01887     0.02624     0.00989
19400430    -0.01336     0.00130     0.01553    -0.00490
19400531    -0.16180    -0.22030    -0.26855    -0.23954
19400629    -0.04762     0.06658     0.06631     0.07659
19400731     0.02527     0.03251     0.03689     0.03106
19400831     0.00528     0.02358     0.02333     0.02624
19400930     0.09457     0.02299     0.03779     0.00947
19401031     0.01777     0.02994     0.04922     0.03940
19401130     0.00635    -0.01642    -0.00202    -0.04242
19401231     0.01735     0.00691    -0.01709    -0.00283
19410131     0.00070    -0.04055    -0.00688    -0.04820
19410228    -0.01478    -0.01492    -0.02048    -0.01490
19410331     0.03375     0.00951     0.01668     0.00403
19410430    -0.08181    -0.05299    -0.05497    -0.06526
19410531     0.06649     0.01428     0.00976     0.00430
19410630     0.03491     0.05837     0.06706     0.05348
19410731     0.02595     0.05841     0.12869     0.05482
19410830    -0.00711     0.00055    -0.00586    -0.00866
19410930     0.02548    -0.00743    -0.02112    -0.00971
19411031    -0.03135    -0.05155    -0.06222    -0.06863
19411129     0.00324    -0.01961    -0.03332    -0.04211
19411231    -0.01613    -0.04680    -0.08216    -0.04505
19420131    -0.11167     0.00578     0.13074     0.01381
19420228    -0.03718    -0.02284    -0.01651    -0.02497
19420331    -0.03659    -0.06555    -0.05221    -0.06752
19420430    -0.00855    -0.04318    -0.04437    -0.04370
19420529     0.03933     0.06145     0.03045     0.06397
19420630     0.10524     0.02502     0.02399     0.01840
19420731     0.02846     0.03481     0.04594     0.03133
19420831     0.01845     0.01870     0.02782     0.00701
19420930     0.00362     0.02630     0.04844     0.02668
19421031     0.02007     0.06795     0.10155     0.06441
19421130     0.05903     0.00143    -0.01367    -0.01380
19421231     0.02027     0.04963     0.03566     0.05167
19430130     0.07985     0.07537     0.16735     0.07165
19430227     0.01138     0.06006     0.13354     0.05062
19430331     0.04221     0.06168     0.11272     0.05273
19430430     0.00623     0.00687     0.03542     0.00086
19430529     0.04954     0.05704     0.08439     0.04487
19430630     0.00893     0.01702     0.01080     0.01982
19430731    -0.01475    -0.04626    -0.06396    -0.05425
19430831     0.03293     0.01294     0.00306     0.01027
19430930     0.01901     0.02418     0.03496     0.02373
19431030    -0.01004    -0.01223    -0.00397    -0.01325
19431130    -0.03188    -0.05834    -0.08835    -0.07550
19431231     0.04532     0.06327     0.09847     0.05898
19440131    -0.02890     0.01789     0.04536     0.01542
19440229    -0.02187     0.00428     0.01372    -0.00253
19440331     0.10806     0.02425     0.04130     0.01692
19440429    -0.00946    -0.01721    -0.02892    -0.01248
19440531     0.01396     0.05188     0.06612     0.04044
19440630     0.00585     0.05674     0.10543     0.05101
19440731     0.01272    -0.01511    -0.01260    -0.02080
19440831     0.03767     0.01527     0.02920     0.00865
19440930     0.00697     0.00035     0.00018    -0.00312
19441031    -0.03601     0.00271     0.00141     0.00000
19441130     0.06466     0.01539     0.02294     0.00391
19441230     0.00680     0.04222     0.06948     0.03507
19450131    -0.01527     0.01815     0.04291     0.01431
19450228     0.04971     0.06539     0.08652     0.06162
19450331    -0.00900    -0.03912    -0.05665    -0.04615
19450430     0.04469     0.07782     0.08895     0.08798
19450531     0.04412     0.01821     0.02963     0.01146
19450630    -0.01548     0.00412     0.03697    -0.00333
19450731     0.00524    -0.02223    -0.03518    -0.02005
19450831     0.01434     0.06067     0.06536     0.05798
19450929     0.04145     0.04804     0.06267     0.04191
19451031     0.10448     0.03921     0.06465     0.03032
19451130     0.09910     0.05481     0.09780     0.03243
19451231    -0.01856     0.01153     0.02390     0.00989
19460131     0.02416     0.06328     0.09439     0.06970
19460228     0.03333    -0.05791    -0.06691    -0.06947
19460330     0.05750     0.05960     0.05821     0.04630
19460430     0.12530     0.04151     0.05170     0.03761
19460531     0.04832     0.04071     0.05473     0.02239
19460628    -0.01613    -0.03947    -0.04899    -0.03910
19460731     0.01230    -0.02559    -0.04092    -0.02550
19460830    -0.06275    -0.06388    -0.07539    -0.07294
19460930    -0.08261    -0.10030    -0.13594    -0.10150
19461031    -0.00948    -0.01425    -0.01159    -0.00802
19461130     0.00299     0.00144    -0.00269    -0.01146
19461231     0.00961     0.05084     0.04688     0.04294
19470131     0.05175     0.01514     0.03026     0.02353
19470228    -0.03846    -0.01175    -0.00746    -0.01469
19470331    -0.01185    -0.01687    -0.02999    -0.01685
19470430    -0.07194    -0.04779    -0.08154    -0.03889
19470529     0.04134    -0.01013    -0.03723    -0.00892
19470630     0.03000     0.05364     0.05696     0.05260
19470731     0.04369     0.04141     0.06188     0.03616
19470829     0.00000    -0.01755    -0.01720    -0.02792
19470930     0.00234    -0.00447     0.00575    -0.01371
19471031     0.01168     0.02466     0.03314     0.02118
19471129     0.05514    -0.01810    -0.02906    -0.02852
19471231     0.05756     0.02987     0.02186     0.02068
19480131    -0.07917    -0.03702    -0.01590    -0.03987
19480228     0.06900    -0.04356    -0.05980    -0.04697
19480331     0.04851     0.08263     0.09607     0.07714
19480430     0.00712     0.03771     0.04087     0.02653
19480528     0.03887     0.07445     0.08712     0.07817
19480630     0.00000    -0.00000    -0.01237     0.00300
19480730    -0.04795    -0.05040    -0.05372    -0.05317
19480831     0.08453     0.00386    -0.00162     0.00757
19480930    -0.04841    -0.02941    -0.04276    -0.03006
19481030     0.08070     0.05976     0.05289     0.06779
19481130    -0.02841    -0.09055    -0.10624    -0.10822
19481231     0.04962     0.03212     0.01418     0.03051
19490131     0.05337     0.00296     0.01792     0.00132
19490228    -0.04792    -0.02872    -0.04133    -0.03942
19490331     0.04899     0.04083     0.05896     0.03010
19490430     0.03060    -0.01805    -0.03182    -0.02125
19490531     0.00000    -0.02735    -0.04272    -0.03731
19490630    -0.04717     0.00344    -0.00795    -0.00211
19490729     0.10231     0.05547     0.06231     0.06215
19490831     0.00000     0.02651     0.02576     0.01197
19490930     0.06024     0.03207     0.04370     0.02365
19491031     0.11790     0.03156     0.03928     0.02953
19491130    -0.01398     0.01922     0.01045     0.00125
19491231     0.17617     0.05261     0.06997     0.04359
19500131     0.05463     0.01632     0.04010     0.01730
19500228    -0.00877     0.01452     0.01566     0.00997
19500331     0.03778     0.01216    -0.00179     0.00407
19500429    -0.01927     0.04015     0.04773     0.04511
19500531     0.02183     0.04294     0.03282     0.03929
19500630    -0.09871    -0.05654    -0.07492    -0.05804
19500731    -0.09524     0.01595     0.05086     0.00848
19500831     0.09474     0.05034     0.05235     0.03251
19500929     0.02899     0.04879     0.05464     0.05592
19501031    -0.00939    -0.00141    -0.00560     0.00411
19501130     0.01066     0.02898     0.03243    -0.00102
19501230     0.01767     0.05720     0.08396     0.04613
19510131     0.05729     0.05794     0.07638     0.06124
19510228    -0.04138     0.01514     0.01154     0.00646
19510331    -0.01807    -0.02103    -0.03367    -0.01835
19510430     0.00613     0.04974     0.04066     0.04813
19510531    -0.00244    -0.02257    -0.02553    -0.04057
19510629    -0.01720    -0.02521    -0.04495    -0.02602
19510731     0.07000     0.07088     0.06312     0.06870
19510831     0.03972     0.04506     0.04751     0.03929
19510928    -0.02032     0.00902     0.02331    -0.00086
19511031    -0.06452    -0.02235    -0.02343    -0.01376
19511130     0.00985     0.00599     0.00742    -0.00262
19511231     0.07108     0.03495     0.01520     0.03890
19520131    -0.03289     0.01697     0.01750     0.01557
19520229    -0.04845    -0.02482    -0.02073    -0.03645
19520331     0.00787     0.04542     0.02921     0.04772
19520430    -0.01302    -0.04872    -0.04482    -0.04309
19520529     0.06069     0.03255     0.02389     0.02316
19520630     0.09500     0.03939     0.03110     0.04610
19520731    -0.00457     0.01189     0.01130     0.01763
19520829    -0.00803    -0.00697    -0.00029    -0.01457
19520930    -0.01974    -0.01922    -0.01550    -0.01958
19521031     0.02133    -0.00527    -0.01147    -0.00081
19521128     0.07193     0.05896     0.05566     0.04649
19521231     0.07397     0.03125     0.02271     0.03546
19530130    -0.01382    -0.00165     0.02436    -0.00715
19530227     0.02802    -0.00163     0.01199    -0.01820
19530331     0.01474    -0.01332    -0.01028    -0.02355
19530430    -0.04979    -0.02738    -0.02413    -0.02649
19530529     0.05022     0.00673     0.00578    -0.00325
19530630    -0.03027    -0.01629    -0.03146    -0.01630
19530731     0.03337     0.02519     0.01760     0.02527
19530831    -0.00417    -0.04399    -0.05168    -0.05778
19530930    -0.02941     0.00306    -0.01116     0.00129
19531030     0.00866     0.04703     0.03801     0.05096
19531130     0.03219     0.02825     0.02134     0.00896
19531231     0.05710     0.00066    -0.01561     0.00202
19540129     0.05466     0.05059     0.07132     0.05119
19540226     0.04415     0.01920     0.01386     0.00268
19540331     0.23247     0.03779     0.02935     0.03021
19540430     0.00599     0.04263     0.01639     0.04900
19540528     0.06957     0.03136     0.04319     0.03291
19540630     0.04712     0.01138     0.01207     0.00069
19540730    -0.00500     0.05043     0.07214     0.05717
19540831    -0.04858    -0.02252    -0.00924    -0.03400
19540930     0.03534     0.06429     0.04413     0.08314
19541029     0.06314    -0.01623    -0.00663    -0.01950
19541130     0.18620     0.09596     0.09200     0.08081
19541231    -0.01764     0.05529     0.08812     0.05082
19550131     0.02624     0.00706     0.01408     0.01807
19550228     0.00404     0.03136     0.04294     0.00355
19550331     0.06720    -0.00119     0.00094    -0.00490
19550429     0.07809     0.03226     0.02223     0.03773
19550531    -0.02103     0.01191     0.00807    -0.00132
19550630    -0.00718     0.06586     0.03471     0.08230
19550729     0.01566     0.02004     0.00785     0.06069
19550831    -0.03915     0.00436     0.00569    -0.00781
19550930    -0.01733    -0.00225    -0.00778     0.01135
19551031    -0.04282    -0.02568    -0.01773    -0.03046
19551130     0.04737     0.07155     0.05528     0.07487
19551230     0.04049     0.01653     0.02304    -0.00066
19560131    -0.03226    -0.02804    -0.02072    -0.03650
19560229     0.05128     0.03958     0.03367     0.03469
19560329     0.21027     0.06812     0.05139     0.06925
19560430     0.07071     0.00523     0.00377    -0.00206
19560531     0.01533    -0.04912    -0.03969    -0.06573
19560629     0.13970     0.03695     0.02154     0.03916
19560731     0.05209     0.05092     0.03986     0.05152
19560831    -0.05728    -0.02917    -0.01728    -0.03806
19560928    -0.06502    -0.05062    -0.03611    -0.04546
19561031     0.03091     0.00768     0.00680     0.00507
19561130     0.04711     0.00799     0.01074    -0.01097
19561231     0.10656     0.03073     0.01764     0.03527
19570131    -0.04074    -0.03211     0.00347    -0.04178
19570228    -0.01641    -0.01861    -0.02308    -0.03265
19570329     0.02163     0.02397     0.02223     0.01965
19570430     0.10106     0.04511     0.02582     0.03695
19570531     0.06162     0.03652     0.02154     0.03695
19570628     0.12394    -0.00564    -0.00675    -0.00127
19570731     0.01662     0.00964     0.00596     0.01140
19570830    -0.05914    -0.05011    -0.04985    -0.05615
19570930    -0.04905    -0.05757    -0.05221    -0.06192
19571031    -0.00666    -0.04115    -0.06619    -0.03206
19571129     0.04054     0.02543     0.02089     0.01607
19571231     0.00847    -0.03735    -0.04889    -0.04147
19580131     0.05410     0.04970     0.10635     0.04276
19580228     0.02379    -0.01402    -0.01180    -0.02062
19580331     0.05327     0.03374     0.03598     0.03085
19580430     0.01445     0.03078     0.03015     0.03183
19580529    -0.00456     0.02452     0.03928     0.01496
19580630     0.05806     0.02949     0.03181     0.02608
19580731     0.00136     0.04506     0.05429     0.04310
19580829     0.00853     0.01911     0.02992     0.01187
19580930     0.09677     0.04872     0.05246     0.04838
19581031     0.06618     0.02737     0.03246     0.02537
19581128     0.02908     0.03026     0.04205     0.02240
19581231     0.22679     0.05321     0.03906     0.05202
19590130    -0.06495     0.00907     0.04149     0.00380
19590227     0.05877     0.01106     0.02749    -0.00018
19590331     0.02647     0.00471     0.01279     0.00054
19590430     0.07919     0.03841     0.02559     0.03878
19590529     0.20435     0.01894     0.00759     0.01893
19590630    -0.04681     0.00095     0.00449    -0.00358
19590731    -0.04464     0.03403     0.03015     0.03489
19590831    -0.00701    -0.01266    -0.01507    -0.01504
19590930    -0.03062    -0.04488    -0.04590    -0.04564
19591030    -0.00608     0.01550     0.02322     0.01125
19591130     0.06748     0.01826     0.01487     0.01321
19591231     0.00516     0.02813     0.02124     0.02763
19600129    -0.05077    -0.06660    -0.03910    -0.07146
19600229     0.00661     0.01275     0.00813     0.00917
19600331     0.05024    -0.01115    -0.02447    -0.01390
19600429     0.03075    -0.01509    -0.01919    -0.01753
19600531     0.11547     0.03352     0.02533     0.02685
19600630     0.03571     0.02333     0.02136     0.01952
19600729     0.00479    -0.02097    -0.01807    -0.02477
19600831     0.02336     0.03020     0.03496     0.02612
19600930    -0.03731    -0.05836    -0.05880    -0.06039
19601031    -0.00969    -0.00476    -0.02299    -0.00243
19601130     0.09149     0.04845     0.04658     0.04027
19601230     0.06463     0.04841     0.03739     0.04627
19610131     0.07251     0.06418     0.08239     0.06316
19610228     0.06250     0.03680     0.05986     0.02687
19610330     0.02963     0.03062     0.05044     0.02554
19610428     0.02734     0.00563     0.00941     0.00384
19610531     0.02752     0.02581     0.04177     0.01914
19610630    -0.02661    -0.02839    -0.04238    -0.02885
19610731     0.02419     0.02988     0.01154     0.03280
19610831     0.06797     0.02682     0.02112     0.01962
19610929     0.03561    -0.01998    -0.02977    -0.01969
19611031     0.09201     0.02748     0.02110     0.02832
19611130    -0.01174     0.04540     0.04630     0.03935
19611229    -0.00172     0.00088    -0.00351     0.00322
19620131    -0.06390    -0.03616    -0.00789    -0.03788
19620228    -0.00784     0.01946     0.01544     0.01627
19620330    -0.00791    -0.00463    -0.00594    -0.00586
19620430    -0.14782    -0.06343    -0.06806    -0.06197
19620531    -0.13381    -0.08447    -0.09804    -0.08599
19620629    -0.13567    -0.08257    -0.08497    -0.08184
19620731     0.14075     0.06546     0.06378     0.06356
19620831     0.02584     0.02342     0.03734     0.01528
19620928    -0.10789    -0.05015    -0.06390    -0.04821
19621031    -0.02122     0.00220    -0.03969     0.00444
19621130     0.15390     0.11008     0.12109     0.10156
19621231    -0.02133     0.01186    -0.02560     0.01349
19630131     0.08654     0.05185     0.08914     0.04913
19630228    -0.05428    -0.02193    -0.01448    -0.02885
19630329     0.05316     0.03292     0.01203     0.03546
19630430     0.10154     0.04744     0.02689     0.04852
19630531     0.03127     0.02005     0.03231     0.01433
19630628    -0.08591    -0.01803    -0.01038    -0.02020
19630731    -0.00401    -0.00172    -0.00630    -0.00346
19630830     0.02589     0.05268     0.04231     0.04875
19630930     0.01630    -0.01190    -0.01037    -0.01103
19631031     0.09292     0.02771     0.01221     0.03222
19631129    -0.01518    -0.00555    -0.01614    -0.01054
19631231     0.04482     0.02174    -0.00423     0.02444
19640131     0.06903     0.02579     0.03209     0.02693
19640228     0.05212     0.01721     0.02517     0.00987
19640331     0.04438     0.01764     0.02551     0.01517
19640430    -0.04039     0.00461     0.00100     0.00608
19640528     0.05491     0.01740     0.00751     0.01145
19640630    -0.00625     0.01508     0.01041     0.01642
19640731    -0.03145     0.02012     0.03016     0.01824
19640831    -0.04383    -0.01127    -0.00604    -0.01623
19640930    -0.00908     0.03048     0.03825     0.02872
19641030    -0.03780     0.00887     0.01882     0.00808
19641130    -0.01488     0.00309    -0.00052    -0.00519
19641231    -0.00727     0.00369    -0.01236     0.00391
19650129     0.09524     0.03865     0.07140     0.03316
19650226     0.01951     0.00695     0.03232    -0.00148
19650331    -0.00329    -0.00971     0.01539    -0.01453
19650430     0.06769     0.03365     0.04156     0.03424
19650528    -0.01134    -0.00435    -0.00585    -0.00774
19650630    -0.04184    -0.05187    -0.08372    -0.04863
19650730     0.04585     0.01676     0.02863     0.01343
19650831     0.04489     0.03088     0.04184     0.02252
19650930     0.02705     0.03195     0.02742     0.03201
19651029     0.04000     0.02927     0.05868     0.02735
19651130    -0.01220     0.00307     0.04654    -0.00876
19651231    -0.04952     0.01354     0.04298     0.00895
19660131    -0.00601     0.01212     0.06417     0.00487
19660228     0.04133    -0.00862     0.02886    -0.01787
19660331     0.00194    -0.02092    -0.00889    -0.02182
19660429     0.08043     0.02484     0.04662     0.02051
19660531    -0.02103    -0.05254    -0.08602    -0.05414
19660630    -0.02968    -0.01032    -0.00499    -0.01614
19660729    -0.02782    -0.01287    -0.01632    -0.01345
19660831    -0.05620    -0.07539    -0.10071    -0.07775
19660930    -0.00936    -0.00696    -0.01816    -0.00700
19661031     0.04567     0.04229    -0.01439     0.04754
19661130     0.13584     0.01751     0.04072     0.00312
19661230    -0.01197     0.00621     0.01731    -0.00149
19670131     0.07537     0.08553     0.17210     0.07818
19670228     0.07910     0.01094     0.04237     0.00196
19670331     0.04884     0.04338     0.05824     0.03941
19670428     0.10089     0.04161     0.04193     0.04224
19670531    -0.03523    -0.03929    -0.00810    -0.05244
19670630     0.06702     0.02690     0.08196     0.01751
19670731     0.02060     0.04919     0.08325     0.04534
19670831    -0.01359    -0.00628     0.00631    -0.01172
19670929     0.09705     0.03428     0.06296     0.03279
19671031     0.08254    -0.02743    -0.02059    -0.02906
19671130     0.03302     0.00790     0.00088     0.00106
19671229     0.02451     0.03370     0.08046     0.02628
19680131    -0.05183    -0.03633     0.02390    -0.04385
19680229    -0.02220    -0.03363    -0.05612    -0.03122
19680329     0.05603     0.00512    -0.01122     0.00940
19680430     0.10612     0.09415     0.14303     0.08193
19680531     0.05579     0.02704     0.09131     0.01117
19680628    -0.00910     0.01153     0.01622     0.00912
19680730    -0.04240    -0.02202    -0.02621    -0.01848
19680830    -0.00915     0.01804     0.03592     0.01146
19680930     0.00000     0.04445     0.06881     0.03854
19681031    -0.08164     0.00904     0.00691     0.00721
19681129     0.08713     0.05851     0.07199     0.04796
19681231    -0.05618    -0.03387     0.00590    -0.04162
19690131    -0.05952    -0.00671    -0.00169    -0.00818
19690228    -0.00700    -0.05364    -0.08573    -0.04737
19690328     0.07030     0.03050     0.02029     0.03444
19690430     0.04459     0.02053     0.00346     0.02148
19690529    -0.02500     0.00504     0.00626    -0.00222
19690630     0.05878    -0.06739    -0.11340    -0.05558
19690731    -0.03923    -0.06517    -0.09582    -0.06018
19690829     0.06626     0.05149     0.05218     0.04007
19690930     0.00072    -0.02259    -0.02462    -0.02502
19691031     0.04417     0.05565     0.09253     0.04424
19691128    -0.00693    -0.03217    -0.05508    -0.03527
19691231     0.02101    -0.01968    -0.06618    -0.01865
19700130    -0.08025    -0.07325    -0.03883    -0.07647
19700227     0.01849     0.05671     0.04020     0.05269
19700331    -0.00514    -0.00473    -0.02371     0.00145
19700430    -0.11965    -0.10532    -0.16196    -0.09048
19700529    -0.06309    -0.06435    -0.09052    -0.06097
19700630    -0.10072    -0.05107    -0.07390    -0.05003
19700731     0.01380     0.07417     0.05926     0.07329
19700831     0.05550     0.05004     0.06162     0.04446
19700930     0.09577     0.04754     0.12610     0.03300
19701030     0.01183    -0.01821    -0.05860    -0.01140
19701130     0.04507     0.05045     0.00302     0.04745
19701231     0.03417     0.06072     0.08132     0.05677
19710129     0.02439     0.05203     0.13610     0.04048
19710226     0.03779     0.01691     0.04791     0.00907
19710331     0.06241     0.04478     0.05660     0.03680
19710430     0.00070     0.03333     0.02709     0.03629
19710528    -0.08232    -0.03641    -0.04944    -0.04156
19710630    -0.03058     0.00312    -0.01724     0.00070
19710730    -0.08123    -0.04028    -0.05363    -0.04132
19710831     0.04824     0.04251     0.04116     0.03610
19710930    -0.00082    -0.00502    -0.00465    -0.00697
19711029    -0.01070    -0.04068    -0.05747    -0.04179
19711130     0.02097    -0.00126    -0.03415    -0.00255
19711231     0.10147     0.09126     0.11713     0.08618
19720131     0.09361     0.02839     0.10389     0.01812
19720229     0.00503     0.03135     0.04181     0.02530
19720330     0.03731     0.00872    -0.00095     0.00591
19720428     0.00981     0.00550     0.00123     0.00438
19720531     0.03394     0.01637    -0.01812     0.01728
19720630    -0.01446    -0.02090    -0.03377    -0.02182
19720731     0.02232    -0.00425    -0.02949     0.00233
19720831     0.02271     0.03596     0.01225     0.03445
19720929    -0.00490    -0.00767    -0.03073    -0.00486
19721031    -0.05166     0.00867    -0.01377     0.00932
19721130     0.01777     0.04977     0.05110     0.04562
19721229     0.02813     0.01124    -0.01987     0.01183
19730131     0.08333    -0.02758    -0.02613    -0.01711
19730228    -0.00597    -0.04449    -0.07284    -0.03749
19730330     0.00000    -0.00794    -0.02898    -0.00143
19730430    -0.05446    -0.05178    -0.07062    -0.04080
19730531    -0.03226    -0.02451    -0.08358    -0.01888
19730629     0.00715    -0.00868    -0.03774    -0.00657
19730731    -0.00789     0.05710     0.10592     0.03798
19730831    -0.03936    -0.02965    -0.04442    -0.03668
19730928    -0.14286     0.05398     0.07299     0.04010
19731031     0.08624    -0.00029     0.00030    -0.00129
19731130    -0.05042    -0.12082    -0.17525    -0.11386
19731231    -0.06887     0.01141    -0.04176     0.01657
19740131    -0.00608     0.00443     0.13237    -0.01005
19740228    -0.02485     0.00235     0.00862    -0.00362
19740329    -0.00893    -0.02337     0.00838    -0.02328
19740430    -0.03606    -0.04596    -0.05554    -0.03905
19740531    -0.05927    -0.04198    -0.07255    -0.03355
19740628     0.00118    -0.02294    -0.03348    -0.01467
19740731    -0.05229    -0.07088    -0.05191    -0.07779
19740830    -0.04030    -0.08775    -0.08579    -0.09028
19740930    -0.17188    -0.10971    -0.07903    -0.11933
19741031     0.18947     0.16559     0.08888     0.16305
19741129    -0.05486    -0.04095    -0.05134    -0.05318
19741231    -0.05219    -0.02701    -0.08074    -0.02015
19750131     0.12054     0.14150     0.29921     0.12281
19750228     0.15272     0.05842     0.05392     0.05989
19750331    -0.04118     0.03019     0.08150     0.02169
19750430     0.01573     0.04649     0.03109     0.04726
19750530     0.03157     0.05514     0.07288     0.04410
19750630    -0.02791     0.05147     0.07179     0.04432
19750731    -0.08971    -0.06039    -0.00896    -0.06765
19750829    -0.01183    -0.02356    -0.04812    -0.02107
19750930     0.01074    -0.03801    -0.03887    -0.03465
19751031     0.12749     0.05586     0.01472     0.06164
19751128     0.07479     0.03122     0.01680     0.02471
19751231    -0.00939    -0.01100    -0.00060    -0.01151
19760130     0.14939     0.12601     0.19004     0.11831
19760227    -0.00145     0.00731     0.10629    -0.01140
19760331     0.02494     0.02680     0.01811     0.03069
19760430    -0.03292    -0.01039    -0.00381    -0.01100
19760528     0.01973    -0.00937    -0.01968    -0.01436
19760630     0.07842     0.04449     0.02651     0.04093
19760730    -0.01671    -0.00616     0.00224    -0.00806
19760831     0.01378    -0.00143    -0.01667    -0.00512
19760930     0.02832     0.02448     0.01699     0.02264
19761029    -0.03421    -0.02037    -0.02259    -0.02223
19761130     0.00552     0.00536     0.02669    -0.00777
19761231     0.02998     0.06160     0.10249     0.05250
19770131    -0.01388    -0.03634     0.03690    -0.05053
19770228     0.01181    -0.01576     0.00440    -0.02166
19770331     0.00181    -0.00925     0.01065    -0.01403
19770429    -0.06420     0.00495     0.01693     0.00020
19770531    -0.04155    -0.01079     0.00287    -0.02357
19770630     0.07536     0.05137     0.05150     0.04536
19770729     0.01563    -0.01281     0.01236    -0.01622
19770831     0.01026    -0.01335    -0.00123    -0.02104
19770930    -0.02748     0.00157     0.01497    -0.00248
19771031    -0.01437    -0.03928    -0.02319    -0.04341
19771130     0.03596     0.04543     0.07087     0.02697
19771230     0.03598     0.00822     0.02108     0.00285
19780131    -0.02925    -0.05520    -0.01115    -0.06151
19780228    -0.04282    -0.00927     0.02601    -0.02476
19780331    -0.06269     0.03401     0.06784     0.02493
19780428     0.12951     0.08284     0.07932     0.08542
19780531    -0.01831     0.02324     0.06762     0.00423
19780630    -0.00387    -0.01075     0.01029    -0.01759
19780731     0.09232     0.05675     0.05239     0.05391
19780831     0.04895     0.04235     0.09355     0.02592
19780929    -0.05096    -0.00689     0.00620    -0.00726
19781031    -0.04603    -0.11100    -0.17728    -0.09157
19781130     0.03077     0.03379     0.03821     0.01664
19781229     0.10761     0.01771     0.01435     0.01489
19790131     0.03434     0.04949     0.09366     0.03975
19790228    -0.01720    -0.02677    -0.01627    -0.03653
19790330     0.05167     0.06562     0.08417     0.05515
19790430    -0.00396     0.00852     0.02881     0.00167
19790531    -0.02167    -0.01358    -0.00684    -0.02634
19790629    -0.03454     0.04685     0.05466     0.03866
19790731    -0.04940     0.01499     0.02137     0.00875
19790831     0.01591     0.06473     0.07562     0.05308
19790928    -0.03214     0.00143    -0.00117     0.00000
19791031    -0.07934    -0.07266    -0.09791    -0.06861
19791130     0.05988     0.06360     0.06529     0.04262
19791231    -0.01341     0.02821     0.06748     0.01677
19800131     0.06602     0.06561     0.10513     0.05762
19800229    -0.06215     0.00101    -0.00630    -0.00438
19800331    -0.12205    -0.12022    -0.16504    -0.10179
19800430    -0.01570     0.05229     0.05346     0.04114
19800530     0.02478     0.06009     0.07125     0.04657
19800630     0.06095     0.03771     0.04618     0.02697
19800731     0.11064     0.06944     0.08928     0.06504
19800829     0.01701     0.02355     0.06398     0.00584
19800930    -0.02099     0.02950     0.05246     0.02517
19801031     0.03899     0.02008     0.04752     0.01602
19801128     0.03542     0.10492     0.06920     0.10238
19801231    -0.00367    -0.03441    -0.03242    -0.03387
19810130    -0.05157    -0.04011     0.00561    -0.04574
19810227     0.01142     0.01552     0.00215     0.01328
19810331    -0.02918     0.04618     0.07267     0.03603
19810430    -0.06012    -0.01126     0.02789    -0.02346
19810529     0.01680     0.01355     0.02719    -0.00166
19810630    -0.01489    -0.01023    -0.01319    -0.01041
19810731    -0.03024    -0.00307    -0.01998    -0.00221
19810831    -0.00249    -0.05628    -0.07191    -0.06210
19810930    -0.01814    -0.06377    -0.09006    -0.05383
19811030    -0.04850     0.06018     0.06973     0.04915
19811130     0.07495     0.04584     0.02167     0.03659
19811231     0.04358    -0.02810    -0.01969    -0.03008
19820129     0.11868    -0.02621    -0.01735    -0.01754
19820226    -0.01399    -0.05113    -0.04799    -0.06055
19820331    -0.03434    -0.01009    -0.01206    -0.01017
19820430     0.07531     0.04327     0.05224     0.04001
19820528    -0.02942    -0.02821    -0.02249    -0.03916
19820630    -0.01423    -0.02391    -0.03670    -0.02029
19820730     0.08247    -0.02053    -0.01478    -0.02299
19820831     0.08739     0.11901     0.06328     0.11598
19820930     0.04078     0.01676     0.03316     0.00761
19821029     0.08859     0.11864     0.12845     0.11036
19821130     0.09371     0.05193     0.09204     0.03612
19821231     0.11272     0.01452     0.02346     0.01516
19830131     0.02727     0.04184     0.11703     0.03313
19830228     0.00996     0.03021     0.04726     0.01900
19830331     0.02778     0.03468     0.05052     0.03309
19830429     0.14988     0.07418     0.08069     0.07492
19830531    -0.04103     0.01322     0.09174    -0.01235
19830630     0.08090     0.03784     0.04634     0.03522
19830729     0.00104    -0.03156    -0.01754    -0.03301
19830831     0.00062     0.00347    -0.03291     0.01132
19830930     0.06172     0.01606     0.00005     0.01016
19831031    -0.00099    -0.02805    -0.05920    -0.01517
19831130    -0.06647     0.02955     0.03169     0.01743
19831230     0.03940    -0.01047    -0.01966    -0.00883
19840131    -0.06455    -0.01302     0.00544    -0.00922
19840229    -0.02563    -0.03907    -0.05075    -0.03886
19840330     0.03401     0.01339     0.00746     0.01350
19840430    -0.00219     0.00254    -0.02050     0.00547
19840531    -0.04440    -0.05234    -0.05151    -0.05936
19840629    -0.01856     0.02338     0.01197     0.01747
19840731     0.04728    -0.02062    -0.05025    -0.01645
19840831     0.12731     0.11268     0.08876     0.10633
19840928     0.00404     0.00041    -0.00035    -0.00348
19841031     0.01187    -0.00008    -0.02377    -0.00006
19841130    -0.02307    -0.01068    -0.03148    -0.01511
19841231     0.01129     0.02366     0.00272     0.02237
19850131     0.10761     0.08572     0.12150     0.07409
19850228    -0.00935     0.01690     0.04609     0.00868
19850329    -0.05224    -0.00174    -0.00352    -0.00293
19850430    -0.00394    -0.00220    -0.00964    -0.00459
19850531     0.02549     0.05578     0.02223     0.05405
19850628    -0.03790     0.01708     0.00210     0.01213
19850731     0.06162    -0.00025     0.02141    -0.00485
19850830    -0.02778    -0.00479    -0.00220    -0.01199
19850930    -0.02172    -0.03982    -0.05685    -0.03472
19851031     0.04844     0.04444     0.01765     0.04251
19851129     0.08450     0.06923     0.05257     0.06506
19851231     0.11270     0.04313     0.02802     0.04506
19860131    -0.02572     0.00983     0.04402     0.00237
19860228     0.00314     0.07255     0.06048     0.07149
19860331     0.00414     0.05396     0.04732     0.05279
19860430     0.03135    -0.00790     0.01613    -0.01415
19860530    -0.01776     0.05080     0.03619     0.05023
19860630    -0.03856     0.01424     0.00798     0.01411
19860731    -0.09556    -0.05970    -0.07313    -0.05868
19860829     0.05547     0.06618     0.02326     0.07119
19860930    -0.03063    -0.07902    -0.05909    -0.08544
19861031    -0.08086     0.04931     0.02381     0.05473
19861128     0.03721     0.01508    -0.00631     0.02148
19861231    -0.05605    -0.02639    -0.03458    -0.02829
19870130     0.07292     0.12848     0.11749     0.13177
19870227     0.09204     0.04790     0.07457     0.03692
19870331     0.07616     0.02364     0.03636     0.02639
19870430     0.06661    -0.01701    -0.01767    -0.01145
19870529     0.00609     0.00513     0.00057     0.00603
19870630     0.01563     0.04369     0.02148     0.04791
19870731    -0.00923     0.04423     0.03518     0.04822
19870831     0.05264     0.03712     0.01454     0.03496
19870930    -0.10468    -0.02079    -0.01588    -0.02417
19871030    -0.18740    -0.22534    -0.27231    -0.21763
19871130    -0.08694    -0.07229    -0.05084    -0.08535
19871231     0.04289     0.07032     0.02612     0.07286
19880129    -0.02706     0.04488     0.07740     0.04043
19880229     0.05539     0.05169     0.06015     0.04182
19880331    -0.08404    -0.01660     0.03569    -0.03334
19880429     0.05343     0.01100     0.01408     0.00942
19880531     0.00198     0.00044    -0.01770     0.00318
19880630     0.13222     0.05146     0.04770     0.04326
19880729    -0.01276    -0.00727     0.00024    -0.00541
19880831    -0.10457    -0.02801    -0.02490    -0.03860
19880930     0.03475     0.03721     0.01700     0.03973
19881031     0.06284     0.01764    -0.01152     0.02596
19881130    -0.02467    -0.01642    -0.03653    -0.01889
19881230     0.02848     0.02107     0.01879     0.01469
19890131     0.07179     0.06610     0.06215     0.07111
19890228    -0.06144    -0.01645     0.00299    -0.02894
19890331    -0.10185     0.02147     0.01806     0.02081
19890428     0.04467     0.04820     0.02908     0.05009
19890531    -0.02776     0.03934     0.02506     0.03514
19890630     0.02052    -0.00487    -0.00774    -0.00792
19890731     0.02793     0.07713     0.03103     0.08837
19890831     0.02900     0.02213     0.01862     0.01552
19890929    -0.06724    -0.00147     0.00555    -0.00654
19891031    -0.08238    -0.02928    -0.04998    -0.02518
19891130    -0.01411     0.01782    -0.00580     0.01654
19891229    -0.03585     0.01830    -0.01238     0.02142
19900131     0.04781    -0.07012    -0.04642    -0.06882
19900228     0.06550     0.01490     0.01543     0.00854
19900330     0.02166     0.02414     0.02132     0.02426
19900430     0.02709    -0.02828    -0.02810    -0.02689
19900531     0.11202     0.08894     0.04567     0.09199
19900629    -0.02083    -0.00420     0.00538    -0.00889
19900731    -0.05106    -0.00940    -0.02572    -0.00522
19900831    -0.07547    -0.09190    -0.10896    -0.09431
19900928     0.04417    -0.05384    -0.08059    -0.05118
19901031    -0.00940    -0.01250    -0.05711    -0.00670
19901130     0.08977     0.06574     0.03550     0.05993
19901231    -0.00550     0.02952    -0.00452     0.02483
19910131     0.12168     0.04908     0.08402     0.04152
19910228     0.02533     0.07585     0.13394     0.06728
19910328    -0.11553     0.02892     0.07836     0.02220
19910430    -0.09550     0.00332     0.03202     0.00035
19910531     0.04209     0.04073     0.03145     0.03858
19910628    -0.08481    -0.04403    -0.03174    -0.04789
19910731     0.04247     0.04680     0.03427     0.04486
19910830    -0.03126     0.02682     0.02760     0.01965
19910930     0.06968    -0.01097     0.00813    -0.01914
19911031    -0.05187     0.01779     0.02464     0.01186
19911129    -0.04621    -0.03728    -0.02374    -0.04393
19911231    -0.03784     0.10678     0.03523     0.11159
19920131     0.01124    -0.00119     0.14985    -0.01990
19920228    -0.02128     0.01334     0.05208     0.00956
19920331    -0.03885    -0.02370    -0.01418    -0.02183
19920430     0.08683     0.01344    -0.03327     0.02789
19920529     0.01333     0.00642     0.00568     0.00096
19920630     0.07851    -0.01928    -0.03915    -0.01736
19920731    -0.03193     0.03987     0.02761     0.03937
19920831    -0.07298    -0.02080    -0.02390    -0.02400
19920930    -0.06782     0.01243     0.01104     0.00911
19921030    -0.17183     0.01100     0.01623     0.00211
19921130     0.03865     0.04019     0.06660     0.03026
19921231    -0.26190     0.01775     0.03573     0.01011
19930129     0.02233     0.01264     0.06763     0.00705
19930226     0.06631     0.00540    -0.00725     0.01048
19930331    -0.06437     0.02507     0.03138     0.01870
19930430    -0.04423    -0.02540    -0.01111    -0.02542
19930528     0.09594     0.02959     0.03875     0.02272
19930630    -0.06398     0.00545     0.01332     0.00076
19930730    -0.09873    -0.00080     0.01371    -0.00533
19930831     0.03371     0.03948     0.03970     0.03443
19930930    -0.08197     0.00064     0.02551    -0.00999
19931029     0.09524     0.01807     0.04053     0.01939
19931130     0.17663    -0.01759    -0.02447    -0.01291
19931231     0.04872     0.01952     0.01619     0.01009
19940131     0.00000     0.03145     0.04915     0.03250
19940228    -0.05973    -0.02420    -0.01008    -0.03005
19940331     0.03310    -0.04580    -0.04600    -0.04575
19940429     0.05263     0.00948    -0.01172     0.01153
19940531     0.10000     0.00936    -0.00085     0.01242
19940630    -0.06746    -0.02791    -0.02819    -0.02681
19940729     0.05319     0.03063     0.01579     0.03147
19940831     0.11111     0.04260     0.03673     0.03764
19940930     0.01642    -0.01836     0.00487    -0.02690
19941031     0.07002     0.01452    -0.00325     0.02083
19941130    -0.04698    -0.03721    -0.04071    -0.03950
19941230     0.03887     0.01260    -0.01343     0.01230
19950131    -0.01871     0.02040     0.02782     0.02428
19950228     0.04679     0.03962     0.02834     0.03607
19950331     0.09136     0.02704     0.01949     0.02733
19950428     0.15221     0.02505     0.02700     0.02796
19950531    -0.01453     0.03401     0.02025     0.03631
19950630     0.03226     0.03118     0.04995     0.02128
19950731     0.13411     0.04078     0.05473     0.03178
19950831    -0.04822     0.00931     0.03207    -0.00032
19950929    -0.08585     0.03636     0.02637     0.04010
19951031     0.02910    -0.01132    -0.04150    -0.00498
19951130    -0.00386     0.04271     0.01669     0.04105
19951229    -0.05433     0.01519     0.00895     0.01744
19960131     0.18741     0.02815     0.03476     0.03262
19960229     0.13249     0.01630     0.03227     0.00693
19960329    -0.09276     0.01094     0.02408     0.00792
19960430    -0.03146     0.02551     0.05806     0.01343
19960531    -0.00603     0.02678     0.06259     0.02285
19960628    -0.07260    -0.00828    -0.03209     0.00226
19960731     0.08586    -0.05382    -0.07955    -0.04575
19960830     0.06721     0.03247     0.04562     0.01881
19960930     0.08852     0.05299     0.02875     0.05417
19961031     0.03614     0.01362    -0.02087     0.02613
19961129     0.23818     0.06552     0.02470     0.07338
19961231    -0.04941    -0.01137    -0.00245    -0.02151
19970131     0.03548     0.05344     0.06383     0.06132
19970228    -0.08143    -0.00116    -0.01026     0.00593
19970331    -0.04522    -0.04481    -0.04921    -0.04261
19970430     0.16940     0.04230    -0.02158     0.05841
19970530     0.08037     0.07163     0.08523     0.05858
19970630     0.04335     0.04413     0.04315     0.04345
19970731     0.17175     0.07651     0.04882     0.07812
19970829    -0.03948    -0.03624     0.02754    -0.05745
19970930     0.04562     0.05846     0.08174     0.05315
19971031    -0.07075    -0.03448    -0.02618    -0.03448
19971128     0.11371     0.03050    -0.02209     0.04459
19971231    -0.04452     0.01775    -0.02389     0.01573
19980130    -0.05615     0.00452     0.01533     0.01015
19980227     0.05962     0.07322     0.06045     0.07045
19980331    -0.00539     0.05132     0.04687     0.04995
19980430     0.11552     0.01088     0.02329     0.00908
19980529     0.01592    -0.02573    -0.04259    -0.01883
19980630    -0.02287     0.03200    -0.02914     0.03944
19980731     0.15406    -0.02324    -0.05049    -0.01162
19980831    -0.14834    -0.15768    -0.19659    -0.14580
19980930     0.14095     0.06390     0.04322     0.06240
19981030     0.15564     0.07435     0.03788     0.08029
19981130     0.11343     0.06200     0.07606     0.05913
19981231     0.11658     0.06314     0.01880     0.05638
19990129    -0.00610     0.03845     0.06474     0.04101
19990226    -0.07247    -0.03808    -0.04212    -0.03228
19990331     0.04418     0.03806    -0.00127     0.03879
19990430     0.18018     0.04890     0.08393     0.03794
19990528     0.11020    -0.02069     0.02511    -0.02497
19990630     0.11422     0.05112     0.03848     0.05444
19990730    -0.02756    -0.03052     0.00719    -0.03205
19990831    -0.00800    -0.01000    -0.03058    -0.00625
19990930    -0.02860    -0.02257    -0.01424    -0.02855
19991029    -0.18802     0.06211    -0.00133     0.06254
19991130     0.05020     0.03698     0.09144     0.01906
19991231     0.04669     0.08397     0.08491     0.05784
20000131     0.04056    -0.03960     0.05056    -0.05090
20000229    -0.08356     0.03194     0.12036    -0.02011
20000331     0.14842     0.05390    -0.00036     0.09672
20000428    -0.05508    -0.05968    -0.08850    -0.03080
20000531    -0.03583    -0.03898    -0.05733    -0.02192
20000630     0.02037     0.05162     0.07930     0.02393
20000731     0.02624    -0.01718    -0.01938    -0.01634
20000831     0.17514     0.07631     0.05930     0.06070
20000929    -0.14773    -0.05137    -0.04014    -0.05348
20001031    -0.12444    -0.02462    -0.06682    -0.00495
20001130    -0.04944    -0.10313    -0.11856    -0.08007
20001229    -0.09091     0.01957    -0.00690     0.00405
20010131     0.31765     0.03960     0.22490     0.03464
20010228    -0.10687    -0.09936    -0.07456    -0.09229
20010330    -0.03724    -0.07020    -0.07276    -0.06420
20010430     0.19713     0.08422     0.07656     0.07681
20010531    -0.02779     0.01055     0.06209     0.00509
20010629     0.01073    -0.01726     0.00766    -0.02500
20010731    -0.06894    -0.01816    -0.02841    -0.01077
20010831    -0.04866    -0.05964    -0.03495    -0.06411
20010928    -0.08234    -0.09159    -0.12781    -0.08172
20011031     0.17826     0.02795     0.07814     0.01810
20011130     0.07088     0.07876     0.08083     0.07518
20011231     0.04646     0.01786     0.05776     0.00757
20020131    -0.10805    -0.01595     0.01811    -0.01557
20020228    -0.08926    -0.02208    -0.03298    -0.02077
20020328     0.05993     0.04459     0.07454     0.03674
20020430    -0.19462    -0.04972    -0.00317    -0.06142
20020531    -0.03773    -0.01087    -0.01564    -0.00908
20020628    -0.10503    -0.07053    -0.06745    -0.07246
20020731    -0.02222    -0.08113    -0.10773    -0.07899
20020830     0.07287     0.00772     0.00651     0.00488
20020930    -0.22645    -0.09984    -0.08466    -0.11001
20021031     0.35380     0.07454     0.04297     0.08644
20021129     0.10299     0.06127     0.11768     0.05707
20021231    -0.10838    -0.05338    -0.04014    -0.06033
20030131     0.00903    -0.02308     0.00605    -0.02741
20030228    -0.00128    -0.01523    -0.02160    -0.01700
20030331     0.00616     0.01028     0.00965     0.00836
20030430     0.08249     0.08249     0.09833     0.08104
20030530     0.03887     0.06305     0.13305     0.05090
20030630    -0.06293     0.01638     0.04965     0.01132
20030731    -0.01515     0.02296     0.06173     0.01622
20030829     0.01132     0.02543     0.04752     0.01787
20030930     0.07706    -0.00931     0.02521    -0.01194
20031031     0.01302     0.06018     0.08097     0.05496
20031128     0.01363     0.01645     0.03810     0.00713
20031231     0.02364     0.04547     0.03908     0.05077
