 1	 2	 3	 4	 5	 6	 7	 8	 9	10	11	12	 1-405.95	NaN	-406.62	NaN	NaN	NaN	NaN	NaN	NaN	NaN	NaN	
 2-409.17	-408.65	-418.23	NaN	NaN	NaN	NaN	NaN	NaN	NaN	NaN	
 3-407.24	-417.89	-407.17	-415.25	-406.61	NaN	NaN	NaN	NaN	NaN	NaN	
 4-405.62	-416.83	-414.88	-413.52	-419.38	NaN	NaN	NaN	NaN	NaN	NaN	
 5-403.71	-404.60	-399.26	-403.00	-400.65	-398.53	-397.10	NaN	NaN	NaN	NaN	
 6-401.69	-408.48	-403.55	-401.63	-403.81	-403.24	-402.54	NaN	NaN	NaN	NaN	
 7-400.23	-406.30	-402.80	nan	